{
  "current_page": 1,
  "next_page": 2,
  "previous_page": null,
  "total_pages": 54,
  "per_page": 10,
  "total_entries": 535,
  "success": true,
  "message": null,
  "data": {
    "members": [
      {
        "id": 579,
        "first_name_en": "فثسف",
        "middle_name_en": "ففف",
        "last_name_en": "فl;kl;",
        "full_name_en": "فثسف ففف فl;kl;",
        "first_name_ar": "فف",
        "middle_name_ar": "لالاىة",
        "last_name_ar": "وزززز",
        "full_name_ar": "فف لالاىة وزززز",
        "avatar_url": null,
        "email_id": "tt4@k.com",
        "mobile": 96663636363,
        "chapter_id": 1,
        "position_title": 1,
        "created_at": "2017-06-06T06:46:01.676+05:30",
        "chapter": {
          "id": 1,
          "name_en": "Riyadh",
          "name_ar": "الرياض",
          "active": true,
          "count": {
            "Member_count": 260,
            "Opportunities_count": 86,
            "Events": 20,
            "Adventures": 0,
            "meetings": 0
          }
        },
        "nationality_id": 3,
        "nationality": {
          "id": 3,
          "name_en": "Jordanian",
          "name_ar": "اردني",
          "active": true
        },
        "job_title_en": "ففثفس",
        "employer_en": "فثسف",
        "joining_reason_en": "test",
        "job_title_ar": "ففثفس",
        "employer_ar": "فثسف",
        "joining_reason_ar": "test",
        "reference_source": "search_engine",
        "investment_count": 0,
        "sponsoring": false,
        "member_status": true,
        "status": 1
      },
      {
        "id": 578,
        "first_name_en": "فثسف",
        "middle_name_en": "ففف",
        "last_name_en": "فl;kl;",
        "full_name_en": "فثسف ففف فl;kl;",
        "first_name_ar": "فف",
        "middle_name_ar": "لالاىة",
        "last_name_ar": "وزززز",
        "full_name_ar": "فف لالاىة وزززز",
        "avatar_url": null,
        "email_id": "tt@k.com",
        "mobile": 966556677777,
        "chapter_id": 1,
        "position_title": 1,
        "created_at": "2017-06-06T06:10:20.008+05:30",
        "chapter": {
          "id": 1,
          "name_en": "Riyadh",
          "name_ar": "الرياض",
          "active": true,
          "count": {
            "Member_count": 260,
            "Opportunities_count": 86,
            "Events": 20,
            "Adventures": 0,
            "meetings": 0
          }
        },
        "nationality_id": 1,
        "nationality": {
          "id": 1,
          "name_en": "Saudi",
          "name_ar": "سعودي",
          "active": true
        },
        "job_title_en": "ففثفس",
        "employer_en": "فثسف",
        "joining_reason_en": "test",
        "job_title_ar": "ففثفس",
        "employer_ar": "فثسف",
        "joining_reason_ar": "test",
        "reference_source": "search_engine",
        "investment_count": 0,
        "sponsoring": false,
        "member_status": true,
        "status": 1
      },
      {
        "id": 577,
        "first_name_en": "محمد",
        "middle_name_en": "علي",
        "last_name_en": "محمد",
        "full_name_en": "محمد علي محمد",
        "first_name_ar": "moam",
        "middle_name_ar": "lkklk",
        "last_name_ar": "lklklk",
        "full_name_ar": "moam lkklk lklklk",
        "avatar_url": null,
        "email_id": "yyyy@yyyyyyy.com",
        "mobile": 9661234567,
        "chapter_id": 1,
        "position_title": 1,
        "created_at": "2017-06-03T23:24:39.038+05:30",
        "chapter": {
          "id": 1,
          "name_en": "Riyadh",
          "name_ar": "الرياض",
          "active": true,
          "count": {
            "Member_count": 260,
            "Opportunities_count": 86,
            "Events": 20,
            "Adventures": 0,
            "meetings": 0
          }
        },
        "nationality_id": 1,
        "nationality": {
          "id": 1,
          "name_en": "Saudi",
          "name_ar": "سعودي",
          "active": true
        },
        "job_title_en": "yyyyyyyyy",
        "employer_en": "yyyy",
        "joining_reason_en": "yyyyyyyyy",
        "job_title_ar": "yyyyyyyyy",
        "employer_ar": "yyyy",
        "joining_reason_ar": "yyyyyyyyy",
        "reference_source": "social_media",
        "investment_count": 0,
        "sponsoring": false,
        "member_status": true,
        "status": 1
      },
      {
        "id": 576,
        "first_name_en": "dasd",
        "middle_name_en": "dsad",
        "last_name_en": "dasd",
        "full_name_en": "dasd dsad dasd",
        "first_name_ar": "dasd",
        "middle_name_ar": "dasd",
        "last_name_ar": "dasdasd",
        "full_name_ar": "dasd dasd dasdasd",
        "avatar_url": null,
        "email_id": "fsdfds@fdfsf.com",
        "mobile": 9661234537890,
        "chapter_id": 1,
        "position_title": 1,
        "created_at": "2017-06-03T22:24:41.932+05:30",
        "chapter": {
          "id": 1,
          "name_en": "Riyadh",
          "name_ar": "الرياض",
          "active": true,
          "count": {
            "Member_count": 260,
            "Opportunities_count": 86,
            "Events": 20,
            "Adventures": 0,
            "meetings": 0
          }
        },
        "nationality_id": 1,
        "nationality": {
          "id": 1,
          "name_en": "Saudi",
          "name_ar": "سعودي",
          "active": true
        },
        "job_title_en": "dsfsdf",
        "employer_en": null,
        "joining_reason_en": "dsfsdfsdf",
        "job_title_ar": "dsfsdf",
        "employer_ar": null,
        "joining_reason_ar": "dsfsdfsdf",
        "reference_source": "social_media",
        "investment_count": 0,
        "sponsoring": false,
        "member_status": true,
        "status": 1
      },
      {
        "id": 575,
        "first_name_en": "adasd",
        "middle_name_en": "asdasd",
        "last_name_en": "asdasd",
        "full_name_en": "adasd asdasd asdasd",
        "first_name_ar": "dsadas",
        "middle_name_ar": "dsadasd",
        "last_name_ar": "asdasdasd",
        "full_name_ar": "dsadas dsadasd asdasdasd",
        "avatar_url": null,
        "email_id": "fdsfdsf@fsdfsdf.com",
        "mobile": 9661234547890,
        "chapter_id": 1,
        "position_title": 1,
        "created_at": "2017-06-03T22:20:52.238+05:30",
        "chapter": {
          "id": 1,
          "name_en": "Riyadh",
          "name_ar": "الرياض",
          "active": true,
          "count": {
            "Member_count": 260,
            "Opportunities_count": 86,
            "Events": 20,
            "Adventures": 0,
            "meetings": 0
          }
        },
        "nationality_id": 1,
        "nationality": {
          "id": 1,
          "name_en": "Saudi",
          "name_ar": "سعودي",
          "active": true
        },
        "job_title_en": "fsdf",
        "employer_en": "fdsf",
        "joining_reason_en": "fsfsf",
        "job_title_ar": "fsdf",
        "employer_ar": "fdsf",
        "joining_reason_ar": "fsfsf",
        "reference_source": "social_media",
        "investment_count": 0,
        "sponsoring": false,
        "member_status": true,
        "status": 1
      },
      {
        "id": 574,
        "first_name_en": "Majed",
        "middle_name_en": null,
        "last_name_en": "Admin",
        "full_name_en": "Majed Admin",
        "first_name_ar": "ادمن",
        "middle_name_ar": null,
        "last_name_ar": "ادمن",
        "full_name_ar": "ادمن ادمن",
        "avatar_url": null,
        "email_id": "majed.abdullah@clicrkapps.co",
        "mobile": 9661234567890,
        "chapter_id": 2,
        "position_title": 1,
        "created_at": "2017-06-03T22:13:25.940+05:30",
        "chapter": {
          "id": 2,
          "name_en": "Jeddah",
          "name_ar": "جدة",
          "active": true,
          "count": {
            "Member_count": 164,
            "Opportunities_count": 83,
            "Events": 2,
            "Adventures": 0,
            "meetings": 0
          }
        },
        "nationality_id": 2,
        "nationality": {
          "id": 2,
          "name_en": "India",
          "name_ar": "India",
          "active": true
        },
        "job_title_en": "CEO",
        "employer_en": null,
        "joining_reason_en": null,
        "job_title_ar": "مدير تنفيدي",
        "employer_ar": null,
        "joining_reason_ar": null,
        "reference_source": "search_engine",
        "investment_count": 0,
        "sponsoring": false,
        "member_status": true,
        "status": 1
      },
      {
        "id": 573,
        "first_name_en": "Yogesh1",
        "middle_name_en": null,
        "last_name_en": "Thakur1",
        "full_name_en": "Yogesh1 Thakur1",
        "first_name_ar": "Yogesh1",
        "middle_name_ar": null,
        "last_name_ar": "Thakur1",
        "full_name_ar": "Yogesh1 Thakur1",
        "avatar_url": null,
        "email_id": "cp@clickapps.co",
        "mobile": 9665342561718,
        "chapter_id": 2,
        "position_title": 1,
        "created_at": "2017-06-03T00:25:34.721+05:30",
        "chapter": {
          "id": 2,
          "name_en": "Jeddah",
          "name_ar": "جدة",
          "active": true,
          "count": {
            "Member_count": 164,
            "Opportunities_count": 83,
            "Events": 2,
            "Adventures": 0,
            "meetings": 0
          }
        },
        "nationality_id": 2,
        "nationality": {
          "id": 2,
          "name_en": "India",
          "name_ar": "India",
          "active": true
        },
        "job_title_en": "Testing is context dependen222",
        "employer_en": "clickapps1",
        "joining_reason_en": "Ssenior QA Experts",
        "job_title_ar": "Testing is context dependen222",
        "employer_ar": "clickapps1",
        "joining_reason_ar": "Ssenior QA Experts",
        "reference_source": "social_media",
        "investment_count": 0,
        "sponsoring": false,
        "member_status": true,
        "status": 2
      },
      {
        "id": 572,
        "first_name_en": "Test39",
        "middle_name_en": null,
        "last_name_en": "Test39",
        "full_name_en": "Test39 Test39",
        "first_name_ar": "Test39",
        "middle_name_ar": null,
        "last_name_ar": "Test39",
        "full_name_ar": "Test39 Test39",
        "avatar_url": null,
        "email_id": "test39@clickapps.co",
        "mobile": 9669569551924,
        "chapter_id": 2,
        "position_title": 1,
        "created_at": "2017-06-01T18:25:15.427+05:30",
        "chapter": {
          "id": 2,
          "name_en": "Jeddah",
          "name_ar": "جدة",
          "active": true,
          "count": {
            "Member_count": 164,
            "Opportunities_count": 83,
            "Events": 2,
            "Adventures": 0,
            "meetings": 0
          }
        },
        "nationality_id": 2,
        "nationality": {
          "id": 2,
          "name_en": "India",
          "name_ar": "India",
          "active": true
        },
        "job_title_en": "Senior Executive",
        "employer_en": null,
        "joining_reason_en": null,
        "job_title_ar": "Senior Executive",
        "employer_ar": null,
        "joining_reason_ar": null,
        "reference_source": "9f6a81",
        "investment_count": 0,
        "sponsoring": false,
        "member_status": true,
        "status": 1
      },
      {
        "id": 571,
        "first_name_en": "Test38",
        "middle_name_en": null,
        "last_name_en": "Test38",
        "full_name_en": "Test38 Test38",
        "first_name_ar": "Test38",
        "middle_name_ar": null,
        "last_name_ar": "Test38",
        "full_name_ar": "Test38 Test38",
        "avatar_url": null,
        "email_id": "test38@clickapps.co",
        "mobile": 9669569551923,
        "chapter_id": 2,
        "position_title": 1,
        "created_at": "2017-06-01T18:23:41.552+05:30",
        "chapter": {
          "id": 2,
          "name_en": "Jeddah",
          "name_ar": "جدة",
          "active": true,
          "count": {
            "Member_count": 164,
            "Opportunities_count": 83,
            "Events": 2,
            "Adventures": 0,
            "meetings": 0
          }
        },
        "nationality_id": 2,
        "nationality": {
          "id": 2,
          "name_en": "India",
          "name_ar": "India",
          "active": true
        },
        "job_title_en": "Senior Executive",
        "employer_en": null,
        "joining_reason_en": null,
        "job_title_ar": "Senior Executive",
        "employer_ar": null,
        "joining_reason_ar": null,
        "reference_source": "9f6a81",
        "investment_count": 0,
        "sponsoring": false,
        "member_status": true,
        "status": 1
      },
      {
        "id": 570,
        "first_name_en": "Test37",
        "middle_name_en": null,
        "last_name_en": "Test37",
        "full_name_en": "Test37 Test37",
        "first_name_ar": "Test37",
        "middle_name_ar": null,
        "last_name_ar": "Test37",
        "full_name_ar": "Test37 Test37",
        "avatar_url": null,
        "email_id": "test37@clickapps.co",
        "mobile": 9669569551922,
        "chapter_id": 2,
        "position_title": 1,
        "created_at": "2017-06-01T18:22:24.713+05:30",
        "chapter": {
          "id": 2,
          "name_en": "Jeddah",
          "name_ar": "جدة",
          "active": true,
          "count": {
            "Member_count": 164,
            "Opportunities_count": 83,
            "Events": 2,
            "Adventures": 0,
            "meetings": 0
          }
        },
        "nationality_id": 2,
        "nationality": {
          "id": 2,
          "name_en": "India",
          "name_ar": "India",
          "active": true
        },
        "job_title_en": "Senior Executive",
        "employer_en": null,
        "joining_reason_en": null,
        "job_title_ar": "Senior Executive",
        "employer_ar": null,
        "joining_reason_ar": null,
        "reference_source": "9f6a81",
        "investment_count": 0,
        "sponsoring": false,
        "member_status": true,
        "status": 1
      }
    ]
  }
}
